<svg width="35" height="38" viewBox="0 0 35 38" fill="none" xmlns="http://www.w3.org/2000/svg">
<rect width="35" height="38" fill="#C9C9C9" fill-opacity="0.4"/>
<path d="M21.5768 24.75H20.7446L21.1353 25.4848L23.7358 30.375H22.8754L20.0253 25.0152L19.8843 24.75H19.5839H15.3113H15.0109L14.8699 25.0152L12.0198 30.375H11.1595L13.7599 25.4848L14.1506 24.75H13.3184H7.94408C7.86156 24.75 7.77321 24.7148 7.70127 24.6367C7.62806 24.5572 7.58059 24.4412 7.58059 24.3125V8.375V7.875H7.08059H5.35361C5.2711 7.875 5.18275 7.83978 5.11081 7.76167C5.0376 7.68219 4.99013 7.5662 4.99013 7.4375C4.99013 7.3088 5.0376 7.19281 5.11081 7.11333C5.18275 7.03522 5.2711 7 5.35361 7H29.5312C29.6138 7 29.7021 7.03522 29.7741 7.11333C29.8473 7.19281 29.8947 7.3088 29.8947 7.4375C29.8947 7.5662 29.8473 7.68219 29.7741 7.76167C29.7021 7.83978 29.6138 7.875 29.5312 7.875H27.8043H27.3043V8.375V24.3125C27.3043 24.4412 27.2568 24.5572 27.1836 24.6367C27.1117 24.7148 27.0233 24.75 26.9408 24.75H21.5768ZM26.5773 8.375V7.875H26.0773H8.80756H8.30756V8.375V23.375V23.875H8.80756H26.0773H26.5773V23.375V8.375ZM13.125 16.375C13.2075 16.375 13.2959 16.4102 13.3678 16.4883C13.441 16.5678 13.4885 16.6838 13.4885 16.8125V18.6875C13.4885 18.8162 13.441 18.9322 13.3678 19.0117C13.2959 19.0898 13.2075 19.125 13.125 19.125C13.0425 19.125 12.9541 19.0898 12.8822 19.0117C12.809 18.9322 12.7615 18.8162 12.7615 18.6875V16.8125C12.7615 16.6838 12.809 16.5678 12.8822 16.4883C12.9541 16.4102 13.0425 16.375 13.125 16.375ZM17.4424 14.5C17.5249 14.5 17.6133 14.5352 17.6852 14.6133C17.7584 14.6928 17.8059 14.8088 17.8059 14.9375V18.6875C17.8059 18.8162 17.7584 18.9322 17.6852 19.0117C17.6133 19.0898 17.5249 19.125 17.4424 19.125C17.3599 19.125 17.2716 19.0898 17.1996 19.0117C17.1264 18.9322 17.0789 18.8162 17.0789 18.6875V14.9375C17.0789 14.8088 17.1264 14.6928 17.1996 14.6133C17.2716 14.5352 17.3599 14.5 17.4424 14.5ZM21.7599 12.625C21.8424 12.625 21.9307 12.6602 22.0027 12.7383C22.0759 12.8178 22.1234 12.9338 22.1234 13.0625V18.6875C22.1234 18.8162 22.0759 18.9322 22.0027 19.0117C21.9307 19.0898 21.8424 19.125 21.7599 19.125C21.6773 19.125 21.589 19.0898 21.5171 19.0117C21.4438 18.9322 21.3964 18.8162 21.3964 18.6875V13.0625C21.3964 12.9338 21.4438 12.8178 21.5171 12.7383C21.589 12.6602 21.6774 12.625 21.7599 12.625Z" fill="#535151"/>
<path d="M21.5768 24.75H20.7446L21.1353 25.4848L23.7358 30.375H22.8754L20.0253 25.0152L19.8843 24.75H19.5839H15.3113H15.0109L14.8699 25.0152L12.0198 30.375H11.1595L13.7599 25.4848L14.1506 24.75H13.3184H7.94408C7.86156 24.75 7.77321 24.7148 7.70127 24.6367C7.62806 24.5572 7.58059 24.4412 7.58059 24.3125V8.375V7.875H7.08059H5.35361C5.2711 7.875 5.18275 7.83978 5.11081 7.76167C5.0376 7.68219 4.99013 7.5662 4.99013 7.4375C4.99013 7.3088 5.0376 7.19281 5.11081 7.11333C5.18275 7.03522 5.2711 7 5.35361 7H29.5312C29.6138 7 29.7021 7.03522 29.7741 7.11333C29.8473 7.19281 29.8947 7.3088 29.8947 7.4375C29.8947 7.5662 29.8473 7.68219 29.7741 7.76167C29.7021 7.83978 29.6138 7.875 29.5312 7.875H27.8043H27.3043V8.375V24.3125C27.3043 24.4412 27.2568 24.5572 27.1836 24.6367C27.1117 24.7148 27.0233 24.75 26.9408 24.75H21.5768ZM26.5773 8.375V7.875H26.0773H8.80756H8.30756V8.375V23.375V23.875H8.80756H26.0773H26.5773V23.375V8.375ZM13.125 16.375C13.2075 16.375 13.2959 16.4102 13.3678 16.4883C13.441 16.5678 13.4885 16.6838 13.4885 16.8125V18.6875C13.4885 18.8162 13.441 18.9322 13.3678 19.0117C13.2959 19.0898 13.2075 19.125 13.125 19.125C13.0425 19.125 12.9541 19.0898 12.8822 19.0117C12.809 18.9322 12.7615 18.8162 12.7615 18.6875V16.8125C12.7615 16.6838 12.809 16.5678 12.8822 16.4883C12.9541 16.4102 13.0425 16.375 13.125 16.375ZM17.4424 14.5C17.5249 14.5 17.6133 14.5352 17.6852 14.6133C17.7584 14.6928 17.8059 14.8088 17.8059 14.9375V18.6875C17.8059 18.8162 17.7584 18.9322 17.6852 19.0117C17.6133 19.0898 17.5249 19.125 17.4424 19.125C17.3599 19.125 17.2716 19.0898 17.1996 19.0117C17.1264 18.9322 17.0789 18.8162 17.0789 18.6875V14.9375C17.0789 14.8088 17.1264 14.6928 17.1996 14.6133C17.2716 14.5352 17.3599 14.5 17.4424 14.5ZM21.7599 12.625C21.8424 12.625 21.9307 12.6602 22.0027 12.7383C22.0759 12.8178 22.1234 12.9338 22.1234 13.0625V18.6875C22.1234 18.8162 22.0759 18.9322 22.0027 19.0117C21.9307 19.0898 21.8424 19.125 21.7599 19.125C21.6773 19.125 21.589 19.0898 21.5171 19.0117C21.4438 18.9322 21.3964 18.8162 21.3964 18.6875V13.0625C21.3964 12.9338 21.4438 12.8178 21.5171 12.7383C21.589 12.6602 21.6774 12.625 21.7599 12.625Z" fill="black" fill-opacity="0.2"/>
<path d="M21.5768 24.75H20.7446L21.1353 25.4848L23.7358 30.375H22.8754L20.0253 25.0152L19.8843 24.75H19.5839H15.3113H15.0109L14.8699 25.0152L12.0198 30.375H11.1595L13.7599 25.4848L14.1506 24.75H13.3184H7.94408C7.86156 24.75 7.77321 24.7148 7.70127 24.6367C7.62806 24.5572 7.58059 24.4412 7.58059 24.3125V8.375V7.875H7.08059H5.35361C5.2711 7.875 5.18275 7.83978 5.11081 7.76167C5.0376 7.68219 4.99013 7.5662 4.99013 7.4375C4.99013 7.3088 5.0376 7.19281 5.11081 7.11333C5.18275 7.03522 5.2711 7 5.35361 7H29.5312C29.6138 7 29.7021 7.03522 29.7741 7.11333C29.8473 7.19281 29.8947 7.3088 29.8947 7.4375C29.8947 7.5662 29.8473 7.68219 29.7741 7.76167C29.7021 7.83978 29.6138 7.875 29.5312 7.875H27.8043H27.3043V8.375V24.3125C27.3043 24.4412 27.2568 24.5572 27.1836 24.6367C27.1117 24.7148 27.0233 24.75 26.9408 24.75H21.5768ZM26.5773 8.375V7.875H26.0773H8.80756H8.30756V8.375V23.375V23.875H8.80756H26.0773H26.5773V23.375V8.375ZM13.125 16.375C13.2075 16.375 13.2959 16.4102 13.3678 16.4883C13.441 16.5678 13.4885 16.6838 13.4885 16.8125V18.6875C13.4885 18.8162 13.441 18.9322 13.3678 19.0117C13.2959 19.0898 13.2075 19.125 13.125 19.125C13.0425 19.125 12.9541 19.0898 12.8822 19.0117C12.809 18.9322 12.7615 18.8162 12.7615 18.6875V16.8125C12.7615 16.6838 12.809 16.5678 12.8822 16.4883C12.9541 16.4102 13.0425 16.375 13.125 16.375ZM17.4424 14.5C17.5249 14.5 17.6133 14.5352 17.6852 14.6133C17.7584 14.6928 17.8059 14.8088 17.8059 14.9375V18.6875C17.8059 18.8162 17.7584 18.9322 17.6852 19.0117C17.6133 19.0898 17.5249 19.125 17.4424 19.125C17.3599 19.125 17.2716 19.0898 17.1996 19.0117C17.1264 18.9322 17.0789 18.8162 17.0789 18.6875V14.9375C17.0789 14.8088 17.1264 14.6928 17.1996 14.6133C17.2716 14.5352 17.3599 14.5 17.4424 14.5ZM21.7599 12.625C21.8424 12.625 21.9307 12.6602 22.0027 12.7383C22.0759 12.8178 22.1234 12.9338 22.1234 13.0625V18.6875C22.1234 18.8162 22.0759 18.9322 22.0027 19.0117C21.9307 19.0898 21.8424 19.125 21.7599 19.125C21.6773 19.125 21.589 19.0898 21.5171 19.0117C21.4438 18.9322 21.3964 18.8162 21.3964 18.6875V13.0625C21.3964 12.9338 21.4438 12.8178 21.5171 12.7383C21.589 12.6602 21.6774 12.625 21.7599 12.625Z" fill="black" fill-opacity="0.2"/>
<path d="M21.5768 24.75H20.7446L21.1353 25.4848L23.7358 30.375H22.8754L20.0253 25.0152L19.8843 24.75H19.5839H15.3113H15.0109L14.8699 25.0152L12.0198 30.375H11.1595L13.7599 25.4848L14.1506 24.75H13.3184H7.94408C7.86156 24.75 7.77321 24.7148 7.70127 24.6367C7.62806 24.5572 7.58059 24.4412 7.58059 24.3125V8.375V7.875H7.08059H5.35361C5.2711 7.875 5.18275 7.83978 5.11081 7.76167C5.0376 7.68219 4.99013 7.5662 4.99013 7.4375C4.99013 7.3088 5.0376 7.19281 5.11081 7.11333C5.18275 7.03522 5.2711 7 5.35361 7H29.5312C29.6138 7 29.7021 7.03522 29.7741 7.11333C29.8473 7.19281 29.8947 7.3088 29.8947 7.4375C29.8947 7.5662 29.8473 7.68219 29.7741 7.76167C29.7021 7.83978 29.6138 7.875 29.5312 7.875H27.8043H27.3043V8.375V24.3125C27.3043 24.4412 27.2568 24.5572 27.1836 24.6367C27.1117 24.7148 27.0233 24.75 26.9408 24.75H21.5768ZM26.5773 8.375V7.875H26.0773H8.80756H8.30756V8.375V23.375V23.875H8.80756H26.0773H26.5773V23.375V8.375ZM13.125 16.375C13.2075 16.375 13.2959 16.4102 13.3678 16.4883C13.441 16.5678 13.4885 16.6838 13.4885 16.8125V18.6875C13.4885 18.8162 13.441 18.9322 13.3678 19.0117C13.2959 19.0898 13.2075 19.125 13.125 19.125C13.0425 19.125 12.9541 19.0898 12.8822 19.0117C12.809 18.9322 12.7615 18.8162 12.7615 18.6875V16.8125C12.7615 16.6838 12.809 16.5678 12.8822 16.4883C12.9541 16.4102 13.0425 16.375 13.125 16.375ZM17.4424 14.5C17.5249 14.5 17.6133 14.5352 17.6852 14.6133C17.7584 14.6928 17.8059 14.8088 17.8059 14.9375V18.6875C17.8059 18.8162 17.7584 18.9322 17.6852 19.0117C17.6133 19.0898 17.5249 19.125 17.4424 19.125C17.3599 19.125 17.2716 19.0898 17.1996 19.0117C17.1264 18.9322 17.0789 18.8162 17.0789 18.6875V14.9375C17.0789 14.8088 17.1264 14.6928 17.1996 14.6133C17.2716 14.5352 17.3599 14.5 17.4424 14.5ZM21.7599 12.625C21.8424 12.625 21.9307 12.6602 22.0027 12.7383C22.0759 12.8178 22.1234 12.9338 22.1234 13.0625V18.6875C22.1234 18.8162 22.0759 18.9322 22.0027 19.0117C21.9307 19.0898 21.8424 19.125 21.7599 19.125C21.6773 19.125 21.589 19.0898 21.5171 19.0117C21.4438 18.9322 21.3964 18.8162 21.3964 18.6875V13.0625C21.3964 12.9338 21.4438 12.8178 21.5171 12.7383C21.589 12.6602 21.6774 12.625 21.7599 12.625Z" fill="black" fill-opacity="0.2"/>
<path d="M21.5768 24.75H20.7446L21.1353 25.4848L23.7358 30.375H22.8754L20.0253 25.0152L19.8843 24.75H19.5839H15.3113H15.0109L14.8699 25.0152L12.0198 30.375H11.1595L13.7599 25.4848L14.1506 24.75H13.3184H7.94408C7.86156 24.75 7.77321 24.7148 7.70127 24.6367C7.62806 24.5572 7.58059 24.4412 7.58059 24.3125V8.375V7.875H7.08059H5.35361C5.2711 7.875 5.18275 7.83978 5.11081 7.76167C5.0376 7.68219 4.99013 7.5662 4.99013 7.4375C4.99013 7.3088 5.0376 7.19281 5.11081 7.11333C5.18275 7.03522 5.2711 7 5.35361 7H29.5312C29.6138 7 29.7021 7.03522 29.7741 7.11333C29.8473 7.19281 29.8947 7.3088 29.8947 7.4375C29.8947 7.5662 29.8473 7.68219 29.7741 7.76167C29.7021 7.83978 29.6138 7.875 29.5312 7.875H27.8043H27.3043V8.375V24.3125C27.3043 24.4412 27.2568 24.5572 27.1836 24.6367C27.1117 24.7148 27.0233 24.75 26.9408 24.75H21.5768ZM26.5773 8.375V7.875H26.0773H8.80756H8.30756V8.375V23.375V23.875H8.80756H26.0773H26.5773V23.375V8.375ZM13.125 16.375C13.2075 16.375 13.2959 16.4102 13.3678 16.4883C13.441 16.5678 13.4885 16.6838 13.4885 16.8125V18.6875C13.4885 18.8162 13.441 18.9322 13.3678 19.0117C13.2959 19.0898 13.2075 19.125 13.125 19.125C13.0425 19.125 12.9541 19.0898 12.8822 19.0117C12.809 18.9322 12.7615 18.8162 12.7615 18.6875V16.8125C12.7615 16.6838 12.809 16.5678 12.8822 16.4883C12.9541 16.4102 13.0425 16.375 13.125 16.375ZM17.4424 14.5C17.5249 14.5 17.6133 14.5352 17.6852 14.6133C17.7584 14.6928 17.8059 14.8088 17.8059 14.9375V18.6875C17.8059 18.8162 17.7584 18.9322 17.6852 19.0117C17.6133 19.0898 17.5249 19.125 17.4424 19.125C17.3599 19.125 17.2716 19.0898 17.1996 19.0117C17.1264 18.9322 17.0789 18.8162 17.0789 18.6875V14.9375C17.0789 14.8088 17.1264 14.6928 17.1996 14.6133C17.2716 14.5352 17.3599 14.5 17.4424 14.5ZM21.7599 12.625C21.8424 12.625 21.9307 12.6602 22.0027 12.7383C22.0759 12.8178 22.1234 12.9338 22.1234 13.0625V18.6875C22.1234 18.8162 22.0759 18.9322 22.0027 19.0117C21.9307 19.0898 21.8424 19.125 21.7599 19.125C21.6773 19.125 21.589 19.0898 21.5171 19.0117C21.4438 18.9322 21.3964 18.8162 21.3964 18.6875V13.0625C21.3964 12.9338 21.4438 12.8178 21.5171 12.7383C21.589 12.6602 21.6774 12.625 21.7599 12.625Z" fill="black" fill-opacity="0.2"/>
<path d="M21.5768 24.75H20.7446L21.1353 25.4848L23.7358 30.375H22.8754L20.0253 25.0152L19.8843 24.75H19.5839H15.3113H15.0109L14.8699 25.0152L12.0198 30.375H11.1595L13.7599 25.4848L14.1506 24.75H13.3184H7.94408C7.86156 24.75 7.77321 24.7148 7.70127 24.6367C7.62806 24.5572 7.58059 24.4412 7.58059 24.3125V8.375V7.875H7.08059H5.35361C5.2711 7.875 5.18275 7.83978 5.11081 7.76167C5.0376 7.68219 4.99013 7.5662 4.99013 7.4375C4.99013 7.3088 5.0376 7.19281 5.11081 7.11333C5.18275 7.03522 5.2711 7 5.35361 7H29.5312C29.6138 7 29.7021 7.03522 29.7741 7.11333C29.8473 7.19281 29.8947 7.3088 29.8947 7.4375C29.8947 7.5662 29.8473 7.68219 29.7741 7.76167C29.7021 7.83978 29.6138 7.875 29.5312 7.875H27.8043H27.3043V8.375V24.3125C27.3043 24.4412 27.2568 24.5572 27.1836 24.6367C27.1117 24.7148 27.0233 24.75 26.9408 24.75H21.5768ZM26.5773 8.375V7.875H26.0773H8.80756H8.30756V8.375V23.375V23.875H8.80756H26.0773H26.5773V23.375V8.375ZM13.125 16.375C13.2075 16.375 13.2959 16.4102 13.3678 16.4883C13.441 16.5678 13.4885 16.6838 13.4885 16.8125V18.6875C13.4885 18.8162 13.441 18.9322 13.3678 19.0117C13.2959 19.0898 13.2075 19.125 13.125 19.125C13.0425 19.125 12.9541 19.0898 12.8822 19.0117C12.809 18.9322 12.7615 18.8162 12.7615 18.6875V16.8125C12.7615 16.6838 12.809 16.5678 12.8822 16.4883C12.9541 16.4102 13.0425 16.375 13.125 16.375ZM17.4424 14.5C17.5249 14.5 17.6133 14.5352 17.6852 14.6133C17.7584 14.6928 17.8059 14.8088 17.8059 14.9375V18.6875C17.8059 18.8162 17.7584 18.9322 17.6852 19.0117C17.6133 19.0898 17.5249 19.125 17.4424 19.125C17.3599 19.125 17.2716 19.0898 17.1996 19.0117C17.1264 18.9322 17.0789 18.8162 17.0789 18.6875V14.9375C17.0789 14.8088 17.1264 14.6928 17.1996 14.6133C17.2716 14.5352 17.3599 14.5 17.4424 14.5ZM21.7599 12.625C21.8424 12.625 21.9307 12.6602 22.0027 12.7383C22.0759 12.8178 22.1234 12.9338 22.1234 13.0625V18.6875C22.1234 18.8162 22.0759 18.9322 22.0027 19.0117C21.9307 19.0898 21.8424 19.125 21.7599 19.125C21.6773 19.125 21.589 19.0898 21.5171 19.0117C21.4438 18.9322 21.3964 18.8162 21.3964 18.6875V13.0625C21.3964 12.9338 21.4438 12.8178 21.5171 12.7383C21.589 12.6602 21.6774 12.625 21.7599 12.625Z" stroke="black"/>
<path d="M21.5768 24.75H20.7446L21.1353 25.4848L23.7358 30.375H22.8754L20.0253 25.0152L19.8843 24.75H19.5839H15.3113H15.0109L14.8699 25.0152L12.0198 30.375H11.1595L13.7599 25.4848L14.1506 24.75H13.3184H7.94408C7.86156 24.75 7.77321 24.7148 7.70127 24.6367C7.62806 24.5572 7.58059 24.4412 7.58059 24.3125V8.375V7.875H7.08059H5.35361C5.2711 7.875 5.18275 7.83978 5.11081 7.76167C5.0376 7.68219 4.99013 7.5662 4.99013 7.4375C4.99013 7.3088 5.0376 7.19281 5.11081 7.11333C5.18275 7.03522 5.2711 7 5.35361 7H29.5312C29.6138 7 29.7021 7.03522 29.7741 7.11333C29.8473 7.19281 29.8947 7.3088 29.8947 7.4375C29.8947 7.5662 29.8473 7.68219 29.7741 7.76167C29.7021 7.83978 29.6138 7.875 29.5312 7.875H27.8043H27.3043V8.375V24.3125C27.3043 24.4412 27.2568 24.5572 27.1836 24.6367C27.1117 24.7148 27.0233 24.75 26.9408 24.75H21.5768ZM26.5773 8.375V7.875H26.0773H8.80756H8.30756V8.375V23.375V23.875H8.80756H26.0773H26.5773V23.375V8.375ZM13.125 16.375C13.2075 16.375 13.2959 16.4102 13.3678 16.4883C13.441 16.5678 13.4885 16.6838 13.4885 16.8125V18.6875C13.4885 18.8162 13.441 18.9322 13.3678 19.0117C13.2959 19.0898 13.2075 19.125 13.125 19.125C13.0425 19.125 12.9541 19.0898 12.8822 19.0117C12.809 18.9322 12.7615 18.8162 12.7615 18.6875V16.8125C12.7615 16.6838 12.809 16.5678 12.8822 16.4883C12.9541 16.4102 13.0425 16.375 13.125 16.375ZM17.4424 14.5C17.5249 14.5 17.6133 14.5352 17.6852 14.6133C17.7584 14.6928 17.8059 14.8088 17.8059 14.9375V18.6875C17.8059 18.8162 17.7584 18.9322 17.6852 19.0117C17.6133 19.0898 17.5249 19.125 17.4424 19.125C17.3599 19.125 17.2716 19.0898 17.1996 19.0117C17.1264 18.9322 17.0789 18.8162 17.0789 18.6875V14.9375C17.0789 14.8088 17.1264 14.6928 17.1996 14.6133C17.2716 14.5352 17.3599 14.5 17.4424 14.5ZM21.7599 12.625C21.8424 12.625 21.9307 12.6602 22.0027 12.7383C22.0759 12.8178 22.1234 12.9338 22.1234 13.0625V18.6875C22.1234 18.8162 22.0759 18.9322 22.0027 19.0117C21.9307 19.0898 21.8424 19.125 21.7599 19.125C21.6773 19.125 21.589 19.0898 21.5171 19.0117C21.4438 18.9322 21.3964 18.8162 21.3964 18.6875V13.0625C21.3964 12.9338 21.4438 12.8178 21.5171 12.7383C21.589 12.6602 21.6774 12.625 21.7599 12.625Z" stroke="black" stroke-opacity="0.2"/>
</svg>
